[
    {
        "item": "S1",
        "item_explanation" : "1ère session"
    },
    {
        "item": "S2",
        "item_explanation" : "2ème session (identique à S1 si aucune information)"
    },
    {
        "item": "CC",
        "item_explanation" : "Contrôle Continu"
    },
    {
        "item": "ET",
        "item_explanation" : "Epreuve Terminale (généralement dans la session d'examens)"
    },
    {
        "item": "ES",
        "item_explanation" : "Epreuve en cours de Semestre"
    },
    {
        "item": "Proj",
        "item_explanation" : "Projet"
    },
    {
        "item": "Sta",
        "item_explanation" : "Stage"
    },
    {
        "item": "TP",
        "item_explanation" : "Epreuve de Travaux Pratiques"
    },
    {
        "item": "rep(S1)",
        "item_explanation" : "Report session 1"
    },
    {
        "item": "CE",
        "item_explanation" : "Compréhension Ecrite (langues)"
    },
    {
        "item": "CO",
        "item_explanation" : "Compréhension Orale (langues)"
    },
    {
        "item": "EE",
        "item_explanation" : "Expression Ecrite (langues)"
    },
    {
        "item": "max(CC, ET)",
        "item_explanation" : "Maximum entre plusieurs notes"
    },
    {
        "item": "EvaC",
        "item_explanation" : "Evaluation de compétences"
    },
    {
        "item": "E",
        "item_explanation" : "Ecrit (par défaut si aucune information)"
    },
    {
        "item": "O",
        "item_explanation" : "Oral"
    },
    {
        "item": "PA",
        "item_explanation" : "Participation Active"
    },
    {
        "item": "x/y",
        "item_explanation" : "x ou y"
    },
    {
        "item": "M",
        "item_explanation" : "sur Machine"
    },
    {
        "item": "Sout",
        "item_explanation" : "Soutenance"
    },
    {
        "item": "Rap",
        "item_explanation" : "Rapport"
    },
    {
        "item": "Tr",
        "item_explanation" : "Travail (dans le cadre d'un stage)"
    },
    {
        "item": "D",
        "item_explanation" : "Dossier"
    },
    {
        "item": "CR",
        "item_explanation" : "Compte-Rendu"
    },
    {
        "item": "LA",
        "item_explanation" : "Lecture d'Article"
    },
    {
        "item": "sd",
        "item_explanation" : "sans document (par défaut si aucune information)"
    },
    {
        "item": "da",
        "item_explanation" : "documents autorisés "
    },
    {
        "item": "fa",
        "item_explanation" : "formulaire autorisé"
    },
    {
        "item": "sc",
        "item_explanation" : "sans calculatrice (par défaut si aucune information)"
    },
    {
        "item": "ca",
        "item_explanation" : "calculatrice autorisée"
    }
]